{
    "input": [
        "Source/General/FortahPowerShell.psm1",
        "Source/General/FortahInt.psm1",
        "Source/General/FortahString.psm1",
        "Source/General/FortahColour.psm1",
        "Source/General/FortahColours.psm1",
        "Source/General/FortahState.psm1",
        "Source/General/FortahStateColours.psm1",
        "Source/General/FortahCharacter.psm1",
        "Source/General/FortahConsole.psm1",
        "Source/General/FortahVersion.psm1",
        "Source/General/FortahSub.psm1",
        
        "Source/Config/FortahConfigBase.psm1",
        "Source/Config/FortahConfigLocator.psm1",
        
        "Source/Log/FortahLogColours.psm1",
        "Source/Log/FortahLogItemType.psm1",
        "Source/Log/FortahLogItem.psm1",
        "Source/Log/FortahLogMessageType.psm1",
        "Source/Log/FortahLogMessage.psm1",
        "Source/Log/FortahLogPropertyMessage.psm1",        
        "Source/Log/FortahLog.psm1",
        "Source/Log/FortahLogRenderer.psm1",

        "Source/Runtime/FortahManifest.psm1",
        "Source/Runtime/FortahCommand.psm1",
        "Source/Runtime/FortahHandlingResult.psm1",
        "Source/Runtime/FortahHandlingOptions.psm1",
        "Source/Runtime/FortahHandler.psm1",
        "Source/Runtime/FortahLoopState.psm1",
        "Source/Runtime/FortahLoop.psm1",
        "Source/Runtime/FortahApplicationBase.psm1",

        "Source/UI/Controls/FortahControl.psm1",
        "Source/UI/Controls/FortahNewLine.psm1",
        "Source/UI/Controls/FortahSeparator.psm1",
        "Source/UI/Controls/FortahSpace.psm1",
        "Source/UI/Controls/FortahLabel.psm1",
        "Source/UI/Controls/FortahContainer.psm1",
        "Source/UI/Controls/FortahShelf.psm1",
        "Source/UI/Controls/FortahStack.psm1",
        "Source/UI/Controls/FortahFrame.psm1",
        "Source/UI/Controls/FortahWindow.psm1",
        "Source/UI/Controls/FortahReader.psm1",

        "Source/UI/Grid/FortahGridColumn.psm1",
        "Source/UI/Grid/FortahGridCheckboxColumn.psm1",
        "Source/UI/Grid/FortahGrid.psm1",
        "Source/UI/Grid/FortahPropertyGridGeometry.psm1",
        "Source/UI/Grid/FortahPropertyGrid.psm1",
        "Source/UI/Grid/FortahSelectableGridItem.psm1",
        "Source/UI/Grid/FortahSelectableGrid.psm1",
        
        "Source/UI/Menu/FortahMenuItem.psm1",
        "Source/UI/Menu/FortahMenuSeparator.psm1",
        "Source/UI/Menu/FortahMenuCommand.psm1",
        "Source/UI/Menu/FortahMenu.psm1",
        "Source/UI/Menu/FortahHorizontalMenu.psm1",
        "Source/UI/Menu/FortahVerticalMenu.psm1"
    ],
    "output": "Library.psm1"
}
